v 20140308 2
C 41900 38900 1 0 0 STM32F072CBT6.sym
{
T 44600 45500 5 10 0 0 0 0 1
footprint=LQFP48_7
T 44600 45700 5 10 0 0 0 0 1
device=STM32F072CBT6
T 43400 44000 5 10 1 1 0 3 1
refdes=U1
}
C 43400 38600 1 0 0 gnd-1.sym
N 43200 38900 43800 38900 4
C 34300 38800 1 0 0 connector4-1.sym
{
T 36100 39700 5 10 0 0 0 0 1
device=CONNECTOR_4
T 34300 40200 5 10 1 1 0 0 1
refdes=SWD
T 34300 38800 5 10 0 0 0 0 1
footprint=JUMPER4
}
C 40500 41500 1 0 0 input-2.sym
{
T 40500 41700 5 10 0 0 0 0 1
net=SWCLK:1
T 41100 42200 5 10 0 0 0 0 1
device=none
T 41000 41600 5 10 1 1 0 7 1
value=SWCLK
}
C 41900 41900 1 180 0 io-1.sym
{
T 41000 41700 5 10 0 0 180 0 1
net=SWDIO:1
T 41700 41300 5 10 0 0 180 0 1
device=none
T 41000 41800 5 10 1 1 180 1 1
value=SWDIO
}
C 36000 39500 1 0 0 io-1.sym
{
T 36900 39700 5 10 0 0 0 0 1
net=SWDIO:1
T 36200 40100 5 10 0 0 0 0 1
device=none
T 36900 39600 5 10 1 1 0 1 1
value=SWDIO
}
C 36000 39200 1 0 0 output-2.sym
{
T 36900 39400 5 10 0 0 0 0 1
net=SWCLK:1
T 36200 39900 5 10 0 0 0 0 1
device=none
T 36900 39300 5 10 1 1 0 1 1
value=SWCLK
}
C 35800 39900 1 0 0 3.3V-plus-1.sym
C 35900 38700 1 0 0 gnd-1.sym
C 41900 42300 1 180 0 io-1.sym
{
T 41000 42100 5 10 0 0 180 0 1
net=USB_DM:1
T 41700 41700 5 10 0 0 180 0 1
device=none
T 41000 42200 5 10 1 1 180 1 1
value=USB_DM
}
C 41900 42100 1 180 0 io-1.sym
{
T 41000 41900 5 10 0 0 180 0 1
net=USB_DP:1
T 41700 41500 5 10 0 0 180 0 1
device=none
T 41000 42000 5 10 1 1 180 1 1
value=USB_DP
}
C 44900 42700 1 0 0 io-1.sym
{
T 45800 42900 5 10 0 0 0 0 1
net=CAN_RX:1
T 45100 43300 5 10 0 0 0 0 1
device=none
T 45800 42800 5 10 1 1 0 1 1
value=CAN_RX
}
C 44900 42500 1 0 0 io-1.sym
{
T 45800 42700 5 10 0 0 0 0 1
net=CAN_TX:1
T 45100 43100 5 10 0 0 0 0 1
device=none
T 45800 42600 5 10 1 1 0 1 1
value=CAN_TX
}
C 49600 37800 1 0 0 SN65HVD232.sym
{
T 52300 39400 5 10 0 0 0 0 1
footprint=SO8M
T 52300 39600 5 10 0 0 0 0 1
device=SN65HVD232D
T 51100 38300 5 10 1 1 0 3 1
refdes=U2
}
C 49600 38600 1 180 0 io-1.sym
{
T 48700 38400 5 10 0 0 180 0 1
net=CAN_RX:1
T 49400 38000 5 10 0 0 180 0 1
device=none
T 48700 38500 5 10 1 1 180 1 1
value=CAN_RX
}
C 49600 39000 1 180 0 io-1.sym
{
T 48700 38800 5 10 0 0 180 0 1
net=CAN_TX:1
T 49400 38400 5 10 0 0 180 0 1
device=none
T 48700 38900 5 10 1 1 180 1 1
value=CAN_TX
}
C 50900 39600 1 0 0 3.3V-plus-1.sym
C 51000 37500 1 0 0 gnd-1.sym
C 52600 38800 1 0 0 io-1.sym
{
T 53500 39000 5 10 0 0 0 0 1
net=CANH:1
T 52800 39400 5 10 0 0 0 0 1
device=none
T 53500 38900 5 10 1 1 0 1 1
value=CANH
}
C 52600 38400 1 0 0 io-1.sym
{
T 53500 38600 5 10 0 0 0 0 1
net=CANL:1
T 52800 39000 5 10 0 0 0 0 1
device=none
T 53500 38500 5 10 1 1 0 1 1
value=CANL
}
C 46400 43100 1 0 0 io-1.sym
{
T 47300 43300 5 10 0 0 0 0 1
net=I2C1_SCL:1
T 46600 43700 5 10 0 0 0 0 1
device=none
T 47300 43200 5 10 1 1 0 1 1
value=I2C1_SCL
}
C 46400 42900 1 0 0 io-1.sym
{
T 47300 43100 5 10 0 0 0 0 1
net=I2C1_SDA:1
T 46600 43500 5 10 0 0 0 0 1
device=none
T 47300 43000 5 10 1 1 0 1 1
value=I2C1_SDA
}
C 41900 43700 1 180 0 output-2.sym
{
T 41000 43500 5 10 0 0 180 0 1
net=SPI1_NSS:1
T 41700 43000 5 10 0 0 180 0 1
device=none
T 41000 43600 5 10 1 1 180 1 1
value=SPI1_NSS
}
C 41900 43500 1 180 0 output-2.sym
{
T 41000 43300 5 10 0 0 180 0 1
net=SPI1_SCK:1
T 41700 42800 5 10 0 0 180 0 1
device=none
T 41000 43400 5 10 1 1 180 1 1
value=SPI1_SCK
}
C 41900 43100 1 180 0 output-2.sym
{
T 41000 42900 5 10 0 0 180 0 1
net=SPI1_MOSI:1
T 41700 42400 5 10 0 0 180 0 1
device=none
T 41000 43000 5 10 1 1 180 1 1
value=SPI1_MOSI
}
C 40500 43100 1 0 0 input-2.sym
{
T 40500 43300 5 10 0 0 0 0 1
net=SPI1_MISO:1
T 41100 43800 5 10 0 0 0 0 1
device=none
T 41000 43200 5 10 1 1 0 7 1
value=SPI1_MISO
}
C 41900 44100 1 180 0 output-2.sym
{
T 41000 43900 5 10 0 0 180 0 1
net=USART2_TX:1
T 41700 43400 5 10 0 0 180 0 1
device=none
T 41000 44000 5 10 1 1 180 1 1
value=USART2_TX
}
C 40500 43700 1 0 0 input-2.sym
{
T 40500 43900 5 10 0 0 0 0 1
net=USART2_RX:1
T 41100 44400 5 10 0 0 0 0 1
device=none
T 41000 43800 5 10 1 1 0 7 1
value=USART2_RX
}
C 34300 41200 1 0 0 connector6-1.sym
{
T 36100 43000 5 10 0 0 0 0 1
device=CONNECTOR_6
T 34300 43200 5 10 1 1 0 0 1
refdes=UART/SPI
T 34300 41200 5 10 0 0 0 0 1
footprint=JUMPER6
}
C 37400 43000 1 180 0 input-2.sym
{
T 37400 42800 5 10 0 0 180 0 1
net=USART2_TX:1
T 36800 42300 5 10 0 0 180 0 1
device=none
T 36900 42900 5 10 1 1 180 7 1
value=USART2_TX
}
C 36000 42500 1 0 0 output-2.sym
{
T 36900 42700 5 10 0 0 0 0 1
net=USART2_RX:1
T 36200 43200 5 10 0 0 0 0 1
device=none
T 36900 42600 5 10 1 1 0 1 1
value=USART2_RX
}
C 37400 42400 1 180 0 input-2.sym
{
T 37400 42200 5 10 0 0 180 0 1
net=SPI1_NSS:1
T 36800 41700 5 10 0 0 180 0 1
device=none
T 36900 42300 5 10 1 1 180 7 1
value=SPI1_NSS
}
C 37400 42100 1 180 0 input-2.sym
{
T 37400 41900 5 10 0 0 180 0 1
net=SPI1_SCK:1
T 36800 41400 5 10 0 0 180 0 1
device=none
T 36900 42000 5 10 1 1 180 7 1
value=SPI1_SCK
}
C 37400 41500 1 180 0 input-2.sym
{
T 37400 41300 5 10 0 0 180 0 1
net=SPI1_MOSI:1
T 36800 40800 5 10 0 0 180 0 1
device=none
T 36900 41400 5 10 1 1 180 7 1
value=SPI1_MOSI
}
C 36000 41600 1 0 0 output-2.sym
{
T 36900 41800 5 10 0 0 0 0 1
net=SPI1_MISO:1
T 36200 42300 5 10 0 0 0 0 1
device=none
T 36900 41700 5 10 1 1 0 1 1
value=SPI1_MISO
}
C 34300 43700 1 0 0 connector4-1.sym
{
T 36100 44600 5 10 0 0 0 0 1
device=CONNECTOR_4
T 34300 45100 5 10 1 1 0 0 1
refdes=POWER
T 34300 43700 5 10 0 0 0 0 1
footprint=JUMPER4
}
C 36400 44500 1 0 0 3.3V-plus-1.sym
N 36000 44500 36600 44500 4
C 35800 44800 1 0 0 5V-plus-1.sym
C 35900 43600 1 0 0 gnd-1.sym
N 36000 44200 36000 43900 4
C 50600 42900 1 180 0 io-1.sym
{
T 49700 42700 5 10 0 0 180 0 1
net=I2C1_SDA:1
T 50400 42300 5 10 0 0 180 0 1
device=none
T 49700 42800 5 10 1 1 180 1 1
value=I2C1_SDA
}
C 50600 42600 1 180 0 io-1.sym
{
T 49700 42400 5 10 0 0 180 0 1
net=I2C1_SCL:1
T 50400 42000 5 10 0 0 180 0 1
device=none
T 49700 42500 5 10 1 1 180 1 1
value=I2C1_SCL
}
C 50600 43500 1 180 0 io-1.sym
{
T 49700 43300 5 10 0 0 180 0 1
net=CANH:1
T 50400 42900 5 10 0 0 180 0 1
device=none
T 49700 43400 5 10 1 1 180 1 1
value=CANH
}
C 50600 43200 1 180 0 io-1.sym
{
T 49700 43000 5 10 0 0 180 0 1
net=CANL:1
T 50400 42600 5 10 0 0 180 0 1
device=none
T 49700 43100 5 10 1 1 180 1 1
value=CANL
}
C 43300 45700 1 0 0 3.3V-plus-1.sym
N 43900 45700 43100 45700 4
C 41800 46900 1 270 0 capacitor-1.sym
{
T 42500 46700 5 10 0 0 270 0 1
device=CAPACITOR
T 42200 46600 5 10 1 1 0 0 1
refdes=C1
T 42700 46700 5 10 0 0 270 0 1
symversion=0.1
T 42100 46100 5 10 1 1 0 0 1
value=100n
T 41800 46900 5 10 0 1 0 0 1
footprint=CAPC2012L
}
C 41200 46900 1 270 0 capacitor-1.sym
{
T 41900 46700 5 10 0 0 270 0 1
device=CAPACITOR
T 41600 46600 5 10 1 1 0 0 1
refdes=C2
T 42100 46700 5 10 0 0 270 0 1
symversion=0.1
T 41500 46100 5 10 1 1 0 0 1
value=100n
T 41200 46900 5 10 0 1 0 0 1
footprint=CAPC2012L
}
C 41500 46900 1 0 0 3.3V-plus-1.sym
N 41400 46900 42000 46900 4
C 41600 45700 1 0 0 gnd-1.sym
N 42000 46000 41400 46000 4
N 46400 43200 44900 43200 4
N 46400 43000 44900 43000 4
C 45600 43500 1 90 0 resistor-1.sym
{
T 45200 43800 5 10 0 0 90 0 1
device=RESISTOR
T 45400 43800 5 10 1 1 180 0 1
refdes=R1
T 45600 43900 5 10 1 1 0 0 1
value=10k
T 45600 43500 5 10 0 1 0 0 1
footprint=RESC2012L
}
C 46300 43500 1 90 0 resistor-1.sym
{
T 45900 43800 5 10 0 0 90 0 1
device=RESISTOR
T 46100 43800 5 10 1 1 180 0 1
refdes=R2
T 46300 43900 5 10 1 1 0 0 1
value=10k
T 46300 43500 5 10 0 1 0 0 1
footprint=RESC2012L
}
N 45500 43200 45500 43500 4
N 46200 43000 46200 43500 4
N 45500 44400 46200 44400 4
C 45600 44400 1 0 0 3.3V-plus-1.sym
C 47500 44600 1 0 0 PCA9306.sym
{
T 50100 47000 5 10 0 0 0 0 1
footprint=US8
T 50100 47200 5 10 0 0 0 0 1
device=PCA9306
T 49000 45900 5 10 1 1 0 3 1
refdes=U3
}
C 47500 45800 1 180 0 io-1.sym
{
T 46600 45600 5 10 0 0 180 0 1
net=I2C1_SCL:1
T 47300 45200 5 10 0 0 180 0 1
device=none
T 46600 45700 5 10 1 1 180 1 1
value=I2C1_SCL
}
C 47500 45400 1 180 0 io-1.sym
{
T 46600 45200 5 10 0 0 180 0 1
net=I2C1_SDA:1
T 47300 44800 5 10 0 0 180 0 1
device=none
T 46600 45300 5 10 1 1 180 1 1
value=I2C1_SDA
}
C 46800 46100 1 0 0 3.3V-plus-1.sym
N 47000 46100 47500 46100 4
C 47400 46200 1 0 0 gnd-1.sym
C 52500 45600 1 0 0 io-1.sym
{
T 53400 45800 5 10 0 0 0 0 1
net=I2C1_SCL_5:1
T 52700 46200 5 10 0 0 0 0 1
device=none
T 53400 45700 5 10 1 1 0 1 1
value=I2C1_SCL_5
}
C 52500 45200 1 0 0 io-1.sym
{
T 53400 45400 5 10 0 0 0 0 1
net=I2C1_SDA_5:1
T 52700 45800 5 10 0 0 0 0 1
device=none
T 53400 45300 5 10 1 1 0 1 1
value=I2C1_SDA_5
}
C 50800 46900 1 90 0 resistor-1.sym
{
T 50400 47200 5 10 0 0 90 0 1
device=RESISTOR
T 50600 47200 5 10 1 1 180 0 1
refdes=R3
T 50800 47300 5 10 1 1 0 0 1
value=10k
T 50800 46900 5 10 0 1 0 0 1
footprint=RESC2012L
}
N 50400 46100 50700 46100 4
N 50700 46100 50700 46900 4
N 50400 46500 50700 46500 4
N 52500 45700 50400 45700 4
N 52500 45300 50400 45300 4
C 51500 46100 1 90 0 resistor-1.sym
{
T 51100 46400 5 10 0 0 90 0 1
device=RESISTOR
T 51500 46100 5 10 0 1 0 0 1
footprint=RESC2012L
T 51300 46400 5 10 1 1 180 0 1
refdes=R4
T 51500 46500 5 10 1 1 0 0 1
value=10k
}
C 52200 46100 1 90 0 resistor-1.sym
{
T 51800 46400 5 10 0 0 90 0 1
device=RESISTOR
T 52200 46100 5 10 0 1 0 0 1
footprint=RESC2012L
T 52000 46400 5 10 1 1 180 0 1
refdes=R5
T 52200 46500 5 10 1 1 0 0 1
value=10k
}
N 51400 47000 52100 47000 4
N 51400 45700 51400 46100 4
N 52100 45300 52100 46100 4
C 51600 47000 1 0 0 5V-plus-1.sym
C 50500 47800 1 0 0 5V-plus-1.sym
C 52300 43600 1 180 0 connector6-1.sym
{
T 50500 41800 5 10 0 0 180 0 1
device=CONNECTOR_6
T 52300 41600 5 10 1 1 180 0 1
refdes=I2C/CAN
T 52300 43600 5 10 0 0 0 0 1
footprint=JUMPER6
}
C 50600 42300 1 180 0 io-1.sym
{
T 49700 42100 5 10 0 0 180 0 1
net=I2C1_SDA_5:1
T 50400 41700 5 10 0 0 180 0 1
device=none
T 49700 42200 5 10 1 1 180 1 1
value=I2C1_SDA_5
}
C 50600 42000 1 180 0 io-1.sym
{
T 49700 41800 5 10 0 0 180 0 1
net=I2C1_SCL_5:1
T 50400 41400 5 10 0 0 180 0 1
device=none
T 49700 41900 5 10 1 1 180 1 1
value=I2C1_SCL_5
}
C 46000 40000 1 270 0 crystal-1.sym
{
T 46500 39800 5 10 0 0 270 0 1
device=CRYSTAL
T 46300 39800 5 10 1 1 270 0 1
refdes=U4
T 46700 39800 5 10 0 0 270 0 1
symversion=0.1
T 46000 40000 5 10 0 0 0 0 1
footprint=CRYSTAL 300
}
C 46100 39800 1 0 0 capacitor-1.sym
{
T 46300 40500 5 10 0 0 0 0 1
device=CAPACITOR
T 46200 40200 5 10 1 1 0 0 1
refdes=C3
T 46300 40700 5 10 0 0 0 0 1
symversion=0.1
T 46700 40200 5 10 1 1 0 0 1
value=20p
T 46100 39800 5 10 0 1 90 0 1
footprint=CAPC2012L
}
C 46100 39100 1 0 0 capacitor-1.sym
{
T 46300 39800 5 10 0 0 0 0 1
device=CAPACITOR
T 46200 39100 5 10 1 1 0 0 1
refdes=C4
T 46300 40000 5 10 0 0 0 0 1
symversion=0.1
T 46700 39500 5 10 1 1 0 0 1
value=20p
T 46100 39100 5 10 0 1 90 0 1
footprint=CAPC2012L
}
N 47000 40000 47000 38900 4
C 46900 38600 1 0 0 gnd-1.sym
N 44900 40000 46100 40000 4
N 44900 39800 45600 39800 4
N 45600 39800 45600 39300 4
N 45600 39300 46100 39300 4
C 41900 41100 1 180 0 io-1.sym
{
T 41000 40900 5 10 0 0 180 0 1
net=RST:1
T 41700 40500 5 10 0 0 180 0 1
device=none
T 41000 41000 5 10 1 1 180 1 1
value=RST
}
C 40300 46400 1 90 0 resistor-1.sym
{
T 39900 46700 5 10 0 0 90 0 1
device=RESISTOR
T 40300 46400 5 10 0 1 0 0 1
footprint=RESC2012L
T 40000 46600 5 10 1 1 90 0 1
refdes=R6
T 40400 46700 5 10 1 1 0 0 1
value=121
}
C 40100 46400 1 270 0 led-2.sym
{
T 40700 46300 5 10 0 0 270 0 1
device=LED
T 40100 46400 5 10 0 0 0 0 1
footprint=SMD_DIODE 60 30
T 40400 45500 5 10 1 1 0 0 1
refdes=D2
}
C 40100 45200 1 0 0 gnd-1.sym
C 41900 44500 1 180 0 io-1.sym
{
T 41000 44300 5 10 0 0 180 0 1
net=TST:1
T 41700 43900 5 10 0 0 180 0 1
device=none
T 41000 44400 5 10 1 1 180 1 1
value=TST
}
C 40200 47400 1 180 0 io-1.sym
{
T 39300 47200 5 10 0 0 180 0 1
net=TST:1
T 40000 46800 5 10 0 0 180 0 1
device=none
T 39300 47300 5 10 1 1 180 1 1
value=TST
}
C 39500 40800 1 0 0 jumper-1.sym
{
T 39800 41300 5 8 0 0 0 0 1
device=JUMPER
T 39800 41300 5 10 1 1 0 0 1
refdes=BOOT
T 39500 40800 5 10 0 0 0 0 1
footprint=JUMPER2
}
C 39700 39900 1 90 0 resistor-1.sym
{
T 39300 40200 5 10 0 0 90 0 1
device=RESISTOR
T 39700 39900 5 10 0 1 0 0 1
footprint=RESC2012L
T 39400 40100 5 10 1 1 90 0 1
refdes=R7
T 39700 40300 5 10 1 1 0 0 1
value=121
}
N 39600 40800 41900 40800 4
C 39500 39600 1 0 0 gnd-1.sym
C 39400 41800 1 0 0 3.3V-plus-1.sym
C 38300 46100 1 90 0 resistor-1.sym
{
T 37900 46400 5 10 0 0 90 0 1
device=RESISTOR
T 38100 46400 5 10 1 1 180 0 1
refdes=R8
T 38300 46500 5 10 1 1 0 0 1
value=10k
T 38300 46100 5 10 0 1 0 0 1
footprint=RESC2012L
}
C 38000 47000 1 0 0 3.3V-plus-1.sym
C 38200 46000 1 180 0 io-1.sym
{
T 37300 45800 5 10 0 0 180 0 1
net=RST:1
T 38000 45400 5 10 0 0 180 0 1
device=none
T 37300 45900 5 10 1 1 180 1 1
value=RST
}
N 38200 45900 38200 46100 4
