v 20140308 2
C 44900 42900 1 0 0 USB_mini_TYPE-B_5_SMT.sym
{
T 45000 44350 5 10 1 1 0 0 1
refdes=USB
T 45190 43510 5 10 1 1 90 0 1
device=USB
T 45300 55550 5 10 0 0 0 0 1
footprint=USBB
}
C 50100 42700 1 0 0 gnd-1.sym
C 52500 44400 1 0 0 3.3V-plus-1.sym
N 48400 43200 51900 43200 4
N 50200 43400 50200 43200 4
C 48200 44100 1 270 0 capacitor-1.sym
{
T 48900 43900 5 10 0 0 270 0 1
device=CAPACITOR
T 49100 43900 5 10 0 0 270 0 1
symversion=0.1
T 48200 44100 5 10 0 1 0 0 1
footprint=CAPC2012L
T 48700 43900 5 10 1 1 270 0 1
refdes=C5
T 48500 43300 5 10 1 1 0 0 1
value=100n
}
C 51700 44100 1 270 0 capacitor-1.sym
{
T 52400 43900 5 10 0 0 270 0 1
device=CAPACITOR
T 52600 43900 5 10 0 0 270 0 1
symversion=0.1
T 51700 44100 5 10 0 1 0 0 1
footprint=CAPC2012L
T 52200 43900 5 10 1 1 270 0 1
refdes=C6
T 52000 43300 5 10 1 1 0 0 1
value=10u
}
N 50200 43200 50200 43000 4
N 52700 44100 52700 44400 4
N 46700 44100 46700 44500 4
C 46500 44500 1 0 0 5V-plus-1.sym
C 48800 43400 1 0 0 LD1117A.sym
{
T 51200 44600 5 10 0 0 0 0 1
footprint=SOT223
T 51200 44800 5 10 0 0 0 0 1
device=LD1117A
T 49300 44600 5 10 1 1 0 3 1
refdes=U5
}
N 48800 44100 46200 44100 4
N 51500 44100 52700 44100 4
C 46100 43000 1 0 0 gnd-1.sym
C 46200 43800 1 0 0 io-1.sym
{
T 47100 44000 5 10 0 0 0 0 1
net=USB_DM:1
T 46400 44400 5 10 0 0 0 0 1
device=none
T 47100 43900 5 10 1 1 0 1 1
value=USB_DM
}
C 46200 43600 1 0 0 io-1.sym
{
T 47100 43800 5 10 0 0 0 0 1
net=USB_DP:1
T 46400 44200 5 10 0 0 0 0 1
device=none
T 47100 43700 5 10 1 1 0 1 1
value=USB_DP
}
C 54900 43800 1 90 0 resistor-1.sym
{
T 54500 44100 5 10 0 0 90 0 1
device=RESISTOR
T 54900 43800 5 10 0 1 0 0 1
footprint=RESC2012L
T 54500 44100 5 10 1 1 90 0 1
refdes=R9
T 54900 44200 5 10 1 1 0 0 1
value=121
}
C 54700 43800 1 270 0 led-2.sym
{
T 55300 43700 5 10 0 0 270 0 1
device=LED
T 54700 43800 5 10 0 0 0 0 1
footprint=SMD_DIODE 60 30
T 55000 42900 5 10 1 1 0 0 1
refdes=D1
}
C 54700 42600 1 0 0 gnd-1.sym
C 54600 44700 1 0 0 3.3V-plus-1.sym
T 55200 43300 9 10 1 0 0 0 1
POWER ON led
